<?xml version="1.0" encoding="UTF-8"?>
<testng-results skipped="0" failed="0" ignored="0" total="0" passed="0">
  <reporter-output>
  </reporter-output>
  <suite name="testClasses.CPA0000Test" duration-ms="6" started-at="2020-04-14T00:30:26 CLT" finished-at="2020-04-14T00:30:26 CLT">
    <groups>
    </groups>
    <test name="Command line test" duration-ms="6" started-at="2020-04-14T00:30:26 CLT" finished-at="2020-04-14T00:30:26 CLT">
    </test> <!-- Command line test -->
  </suite> <!-- testClasses.CPA0000Test -->
</testng-results>
